{
	"info": {
		"name": "NISP 2.1B Portal:Health Recovery",
		"_postman_id": "0640c17e-f8a3-f414-6643-9149ee1de102",
		"schema": "https://schema.getpostman.com/json/collection/v2.1.0/collection.json"
	},
	"item": [
		{
			"name": "GET /v2/portal/workersInsurance/me/claims/{id}/injuryManagement",
			"item": [
				{
					"name": "200: Success",
					"event": [
						{
							"listen": "test",
							"script": {
								"id": "e5e0c011-e1c9-44cc-829b-8165c60737df",
								"type": "text/javascript",
								"exec": [
									"pm.test(\"Status code is 200\", function () {",
									"    pm.response.to.have.status(200);",
									"});",
									"",
									"pm.test(\"Response must be valid and have a body\", function () {",
									"     pm.response.to.be.json;",
									"});"
								]
							}
						}
					],
					"request": {
						"auth": {
							"type": "oauth2",
							"oauth2": [
								{
									"key": "addTokenTo",
									"value": "header",
									"type": "string"
								}
							]
						},
						"method": "GET",
						"header": [
							{
								"key": "X-TrackingID",
								"value": "X-TrackingID"
							},
							{
								"key": "Content-Type",
								"value": "application/json"
							},
							{
								"key": "X-OktaTokenJson",
								"value": "icareemployer1@gmail.com"
							}
						],
						"body": {
							"mode": "raw",
							"raw": "{\r\n  \"date\": \"string\"\r\n}"
						},
						"url": {
							"raw": "{{HostHealthRecovery}}/v2/portal/workersInsurance/me/claims/8530676/injuryManagement",
							"host": [
								"{{HostHealthRecovery}}"
							],
							"path": [
								"v2",
								"portal",
								"workersInsurance",
								"me",
								"claims",
								"8530676",
								"injuryManagement"
							]
						}
					},
					"response": []
				}
			]
		},
		{
			"name": "GET /v2/portal/workersInsurance/me/claims/{id}/returnToWork",
			"item": [
				{
					"name": "200: Success",
					"event": [
						{
							"listen": "test",
							"script": {
								"id": "46921c63-7493-478f-a9a0-5c73948de032",
								"type": "text/javascript",
								"exec": [
									"pm.test(\"Status code is 200\", function () {",
									"    pm.response.to.have.status(200);",
									"});",
									"",
									"pm.test(\"Response must be valid and have a body\", function () {",
									"     pm.response.to.be.json;",
									"});"
								]
							}
						}
					],
					"request": {
						"auth": {
							"type": "oauth2",
							"oauth2": [
								{
									"key": "addTokenTo",
									"value": "header",
									"type": "string"
								}
							]
						},
						"method": "GET",
						"header": [
							{
								"key": "X-TrackingID",
								"value": "X-TrackingID"
							},
							{
								"key": "Content-Type",
								"value": "application/json"
							},
							{
								"key": "X-OktaTokenJson",
								"value": "icareemployer1@gmail.com"
							}
						],
						"body": {
							"mode": "raw",
							"raw": "{\r\n  \"date\": \"string\"\r\n}"
						},
						"url": {
							"raw": "{{HostHealthRecovery}}/v2/portal/workersInsurance/me/claims/8530676/returnToWork",
							"host": [
								"{{HostHealthRecovery}}"
							],
							"path": [
								"v2",
								"portal",
								"workersInsurance",
								"me",
								"claims",
								"8530676",
								"returnToWork"
							]
						}
					},
					"response": []
				}
			]
		},
		{
			"name": "POST /v2/portal/workersInsurance/me/claims/{id}/returnToWork",
			"item": [
				{
					"name": "200: Success",
					"event": [
						{
							"listen": "test",
							"script": {
								"id": "99598098-b4a0-4c90-b820-42c015a6df8b",
								"type": "text/javascript",
								"exec": [
									"pm.test(\"Status code is 200\", function () {",
									"    pm.response.to.have.status(200);",
									"});",
									"",
									"pm.test(\"Response must be valid and have a body\", function () {",
									"     pm.response.to.be.json;",
									"});"
								]
							}
						}
					],
					"request": {
						"auth": {
							"type": "oauth2",
							"oauth2": [
								{
									"key": "addTokenTo",
									"value": "header",
									"type": "string"
								}
							]
						},
						"method": "POST",
						"header": [
							{
								"key": "X-TrackingID",
								"value": "X-TrackingID"
							},
							{
								"key": "Content-Type",
								"value": "application/json"
							},
							{
								"key": "X-OktaTokenJson",
								"value": "icareemployer1@gmail.com"
							}
						],
						"body": {
							"mode": "raw",
							"raw": ""
						},
						"url": {
							"raw": "{{HostHealthRecovery}}/v2/portal/workersInsurance/me/claims/8530676/returnToWork",
							"host": [
								"{{HostHealthRecovery}}"
							],
							"path": [
								"v2",
								"portal",
								"workersInsurance",
								"me",
								"claims",
								"8530676",
								"returnToWork"
							]
						}
					},
					"response": []
				}
			]
		}
	]
}