{
  "id": "146e52f0-fd32-4814-8e58-8a3c0f4d5eb7",
  "values": [
    {
      "key": "TestDataBody_GetProjectValues",
      "value": "{\n\t\"data\": {\n\t\t\"type\": \"projectValues\",\n\t\t\"attributes\": {\n\t\t  \"agencyId\": \"0012O000002zfpJQAQ\",\n\t\t  \"sumsInsured\": \"1000000\"\n\t\t}\n\t}\n}",
      "type": "text",
      "enabled": true
    },
    {
      "key": "TestDataBody_AddQuote",
      "value": "{\n  \"data\": {\n    \"type\": \"Quote\",\n    \"id\": \"\",\n    \"attributes\": {\n      \"agencyId\": \"0012O000002zfpJQAQ\",\n      \"governmentContractNumber\": \"987655\",\n      \"projectName\": \"Road construction project2\",\n      \"projectType\": \"School\",\n      \"contaminatedLandRegistered\": false,\n      \"status\": \"quote\",\n      \"createdDate\": \"\",\n      \"distributionType\": \"\",\n      \"riskDates\": {\n        \"coverInceptionDate\": \"11/01/2018T00:00:00Z\",\n        \"constructionStartDate\": \"13/01/2018T00:00:00Z\",\n        \"constructionEndDate\": \"11/08/2018T00:00:00Z\",\n        \"testingPeriod\": \"10 months\",\n        \"postCompletionPeriod\": \"11 months\"\n      },\n      \"projectValues\": {\n        \"contractWorks\": {\n          \"sumInsured\": \"986675.00\",\n          \"existingProperty\": \"Existing Property 2\",\n          \"policyExcess\": \"24666.88\",\n          \"leg3Excess\": \"246668.75\"\n        },\n        \"liabilities\": {\n          \"publicAndProductLiabilityLimit\": \"986675.00\",\n          \"environmentImpairmentLiabilityLimit\": \"986675.00\",\n          \"publicLiabilityExcess\": \"49333.75\",\n          \"workerExcess\": \"49333.75\"\n        },\n        \"professionalIndeminity\": {\n          \"liabilityLimit\": \"49333.75\",\n          \"indemnityExcess\": \"24666.88\"\n        },\n        \"additionalProducts\": false\n      }\n    }\n  }\n}",
      "type": "text",
      "enabled": true
    },
    {
      "key": "TestDataBody_SaveQuote",
      "value": "{\n  \"data\": {\n    \"type\": \"Quote\",\n    \"id\": \"\",\n    \"attributes\": {\n      \"agencyId\": \"0012O000002zfpJQAQ\",\n      \"governmentContractNumber\": \"987655\",\n      \"projectName\": \"Road construction project2\",\n      \"projectType\": \"School\",\n      \"contaminatedLandRegistered\": false,\n      \"status\": \"quote\",\n      \"createdDate\": \"13/01/2018T00:00:00Z\",\n      \"distributionType\": \"Renewal\",\n      \"riskDates\": {\n        \"coverInceptionDate\": \"11/01/2018T00:00:00Z\",\n        \"constructionStartDate\": \"13/01/2018T00:00:00Z\",\n        \"constructionEndDate\": \"11/08/2018T00:00:00Z\",\n        \"testingPeriod\": \"10 months\",\n        \"postCompletionPeriod\": \"11 months\"\n      },\n      \"projectValues\": {\n        \"contractWorks\": {\n          \"sumInsured\": \"986675.00\",\n          \"existingProperty\": \"Existing Property 2\",\n          \"policyExcess\": \"24666.88\",\n          \"leg3Excess\": \"246668.75\"\n        },\n        \"liabilities\": {\n          \"publicAndProductLiabilityLimit\": \"986675.00\",\n          \"environmentImpairmentLiabilityLimit\": \"986675.00\",\n          \"publicLiabilityExcess\": \"49333.75\",\n          \"workerExcess\": \"49333.75\"\n        },\n        \"professionalIndeminity\": {\n          \"liabilityLimit\": \"49333.75\",\n          \"indemnityExcess\": \"24666.88\"\n        },\n        \"additionalProducts\": false\n      },\n      \"additionalInfo\": {\n        \"wbsNumber\": \"5772659\",\n        \"purchaseOrder\": \"PO5488611\",\n        \"contractors\": [\n          {\n            \"legalName\": \"Parisian, Koelpin and Kirlin\",\n            \"abn\": \"16 002 516 485\"\n          },\n          {\n            \"legalName\": \"Lakin-McCullough\",\n            \"abn\": \"29 076 831 215\"\n          },\n          {\n            \"legalName\": \"Kassulke-Bashirian\",\n            \"abn\": \"15 549 532 626\"\n          }\n        ],\n        \"projectLocation\": {\n          \"streetAddress\": {\n            \"addressLine1\": \"4 Sunbrook Plaza\",\n            \"addressLine2\": \"\",\n            \"city\": \"Vienna\",\n            \"state\": \"Virginia\",\n            \"postCode\": \"2218\"\n          },\n          \"geoLocation\": {\n            \"latitude\": \"38.8318\",\n            \"longitude\": \"-77.2888\"\n          }\n        },\n        \"contactDetails\": {\n          \"accountsPayableEmail\": \"aseakin1@cnbc.com\",\n          \"projectContact\": {\n            \"firstName\": \"Andrea\",\n            \"lastName\": \"Seakin\",\n            \"email\": \"aseakin1@wufoo.com\",\n            \"phone\": \"5717609697\"\n          }\n        }\n      },\n      \"supportingDocuments\": [\n        {\n          \"link\": \"http://dummyimage.com/244x224.png/cc0000/ffffff\",\n          \"title\": \"SupportingDocument_46yo\",\n          \"type\": \"DOC\",\n          \"size\": \"100kb\",\n          \"uploadDate\": \"13/01/2018T00:00:00Z\"\n        },\n        {\n          \"link\": \"http://dummyimage.com/211x207.png/5fa2dd/ffffff\",\n          \"title\": \"SupportingDocument_13gh\",\n          \"type\": \"XLS\",\n          \"size\": \"955kb\",\n          \"uploadDate\": \"13/01/2018T00:00:00Z\"\n        }\n      ]\n    }\n  }\n}",
      "type": "text",
      "enabled": true
    },
    {
      "key": "TestDataBody_BindPolicy",
      "value": "{\n  \"data\": {\n    \"type\": \"Quote\",\n    \"id\": \"J123760\",\n    \"attributes\": {\n      \"agencyId\": \"0012O000002zfpJQAQ\",\n      \"quoteId\": \"J123760\",\n      \"governmentContractNumber\": \"987655\",\n      \"projectName\": \"Road construction project2\",\n      \"projectType\": \"School\",\n      \"contaminatedLandRegistered\": false,\n      \"status\": \"active\",\n      \"createdDate\": \"13/01/2018T00:00:00Z\",\n      \"distributionType\": \"One-off\",\n      \"riskDates\": {\n        \"coverInceptionDate\": \"11/01/2018T00:00:00Z\",\n        \"constructionStartDate\": \"13/01/2018T00:00:00Z\",\n        \"constructionEndDate\": \"11/08/2018T00:00:00Z\",\n        \"testingPeriod\": \"10 months\",\n        \"postCompletionPeriod\": \"11 months\"\n      },\n      \"projectValues\": {\n        \"contractWorks\": {\n          \"sumInsured\": \"986675.00\",\n          \"existingProperty\": \"Existing Property 2\",\n          \"policyExcess\": \"24666.88\",\n          \"leg3Excess\": \"246668.75\"\n        },\n        \"liabilities\": {\n          \"publicAndProductLiabilityLimit\": \"986675.00\",\n          \"environmentImpairmentLiabilityLimit\": \"986675.00\",\n          \"publicLiabilityExcess\": \"49333.75\",\n          \"workerExcess\": \"49333.75\"\n        },\n        \"professionalIndeminity\": {\n          \"liabilityLimit\": \"49333.75\",\n          \"indemnityExcess\": \"24666.88\"\n        },\n        \"additionalProducts\": false\n      },\n      \"additionalInfo\": {\n        \"wbsNumber\": \"5772659\",\n        \"purchaseOrder\": \"PO5488611\",\n        \"contractors\": [\n          {\n            \"legalName\": \"Parisian, Koelpin and Kirlin\",\n            \"abn\": \"16 002 516 485\"\n          },\n          {\n            \"legalName\": \"Lakin-McCullough\",\n            \"abn\": \"29 076 831 215\"\n          },\n          {\n            \"legalName\": \"Kassulke-Bashirian\",\n            \"abn\": \"15 549 532 626\"\n          }\n        ],\n        \"projectLocation\": {\n          \"streetAddress\": {\n            \"addressLine1\": \"4 Sunbrook Plaza\",\n            \"addressLine2\": \"\",\n            \"city\": \"Vienna\",\n            \"state\": \"Virginia\",\n            \"postCode\": \"2218\"\n          },\n          \"geoLocation\": {\n            \"latitude\": \"38.8318\",\n            \"longitude\": \"-77.2888\"\n          }\n        },\n        \"contactDetails\": {\n          \"accountsPayableEmail\": \"aseakin1@cnbc.com\",\n          \"projectContact\": {\n            \"firstName\": \"Andrea\",\n            \"lastName\": \"Seakin\",\n            \"email\": \"aseakin1@wufoo.com\",\n            \"phone\": \"5717609697\"\n          }\n        }\n      },\n      \"supportingDocuments\": [\n        {\n          \"link\": \"http://dummyimage.com/244x224.png/cc0000/ffffff\",\n          \"title\": \"SupportingDocument_46yo\",\n          \"type\": \"DOC\",\n          \"size\": \"100kb\",\n          \"uploadDate\": \"13/01/2018T00:00:00Z\"\n        },\n        {\n          \"link\": \"http://dummyimage.com/211x207.png/5fa2dd/ffffff\",\n          \"title\": \"SupportingDocument_13gh\",\n          \"type\": \"XLS\",\n          \"size\": \"955kb\",\n          \"uploadDate\": \"13/01/2018T00:00:00Z\"\n        }\n      ]\n    }\n  }\n}",
      "type": "text",
      "enabled": true
    },
    {
      "key": "TestDataBody_AmendPolicy",
      "value": "{\n  \"data\": {\n    \"type\": \"Policy\",\n    \"id\": \"\",\n    \"attributes\": {\n      \"agencyId\": \"0012O000002zfpJQAQ\",\n      \"lossesReported\": false,\n      \"governmentContractNumber\": \"987655\",\n      \"projectName\": \"Road construction project2\",\n      \"projectType\": \"School\",\n      \"contaminatedLandRegistered\": false,\n      \"status\": \"active\",\n      \"createdDate\": \"13/01/2018T00:00:00Z\",\n      \"distributionType\": \"One-off\",\n      \"riskDates\": {\n        \"coverInceptionDate\": \"11/01/2018T00:00:00Z\",\n        \"constructionStartDate\": \"13/01/2018T00:00:00Z\",\n        \"constructionEndDate\": \"11/08/2018T00:00:00Z\",\n        \"testingPeriod\": \"10 months\",\n        \"postCompletionPeriod\": \"11 months\"\n      },\n      \"projectValues\": {\n        \"contractWorks\": {\n          \"sumInsured\": \"986675.00\",\n          \"existingProperty\": \"Existing Property 2\",\n          \"policyExcess\": \"24666.88\",\n          \"leg3Excess\": \"246668.75\"\n        },\n        \"liabilities\": {\n          \"publicAndProductLiabilityLimit\": \"986675.00\",\n          \"environmentImpairmentLiabilityLimit\": \"986675.00\",\n          \"publicLiabilityExcess\": \"49333.75\",\n          \"workerExcess\": \"49333.75\"\n        },\n        \"professionalIndeminity\": {\n          \"liabilityLimit\": \"49333.75\",\n          \"indemnityExcess\": \"24666.88\"\n        },\n        \"additionalProducts\": false\n      },\n      \"additionalInfo\": {\n        \"wbsNumber\": \"5772659\",\n        \"purchaseOrder\": \"PO5488611\",\n        \"contractors\": [\n          {\n            \"legalName\": \"Parisian, Koelpin and Kirlin\",\n            \"abn\": \"16 002 516 485\"\n          },\n          {\n            \"legalName\": \"Lakin-McCullough\",\n            \"abn\": \"29 076 831 215\"\n          },\n          {\n            \"legalName\": \"Kassulke-Bashirian\",\n            \"abn\": \"15 549 532 626\"\n          }\n        ],\n        \"projectLocation\": {\n          \"streetAddress\": {\n            \"addressLine1\": \"4 Sunbrook Plaza\",\n            \"addressLine2\": \"\",\n            \"city\": \"Vienna\",\n            \"state\": \"Virginia\",\n            \"postCode\": \"2218\"\n          },\n          \"geoLocation\": {\n            \"latitude\": \"38.8318\",\n            \"longitude\": \"-77.2888\"\n          }\n        },\n        \"contactDetails\": {\n          \"accountsPayableEmail\": \"aseakin1@cnbc.com\",\n          \"projectContact\": {\n            \"firstName\": \"Andrea\",\n            \"lastName\": \"Seakin\",\n            \"email\": \"aseakin1@wufoo.com\",\n            \"phone\": \"5717609697\"\n          }\n        }\n      },\n      \"supportingDocuments\": [\n        {\n          \"link\": \"http://dummyimage.com/244x224.png/cc0000/ffffff\",\n          \"title\": \"SupportingDocument_46yo\",\n          \"type\": \"DOC\",\n          \"size\": \"100kb\",\n          \"uploadDate\": \"13/01/2018T00:00:00Z\"\n        },\n        {\n          \"link\": \"http://dummyimage.com/211x207.png/5fa2dd/ffffff\",\n          \"title\": \"SupportingDocument_13gh\",\n          \"type\": \"XLS\",\n          \"size\": \"955kb\",\n          \"uploadDate\": \"13/01/2018T00:00:00Z\"\n        }\n      ]\n    }\n  }\n}",
      "type": "text",
      "enabled": true
    },
    {
      "key": "TestDataBody_AmendPolicy_NoQuoteIdResponse",
      "value": "{\n  \"data\": {\n    \"type\": \"Policy\",\n    \"id\": \"\",\n    \"attributes\": {\n      \"agencyId\": \"0012O000002zfpJQAQ\",\n      \"lossesReported\": false,\n      \"governmentContractNumber\": \"987655\",\n      \"projectName\": \"Road construction project2\",\n      \"projectType\": \"School\",\n      \"contaminatedLandRegistered\": false,\n      \"status\": \"active\",\n      \"createdDate\": \"13/01/2018T00:00:00Z\",\n      \"distributionType\": \"One-off\",\n      \"riskDates\": {\n        \"coverInceptionDate\": \"11/01/2018T00:00:00Z\",\n        \"constructionStartDate\": \"13/01/2018T00:00:00Z\",\n        \"constructionEndDate\": \"11/08/2018T00:00:00Z\",\n        \"testingPeriod\": \"0 months\",\n        \"postCompletionPeriod\": \"11 months\"\n      },\n      \"projectValues\": {\n        \"contractWorks\": {\n          \"sumInsured\": \"986675.00\",\n          \"existingProperty\": \"Existing Property 2\",\n          \"policyExcess\": \"24666.88\",\n          \"leg3Excess\": \"246668.75\"\n        },\n        \"liabilities\": {\n          \"publicAndProductLiabilityLimit\": \"986675.00\",\n          \"environmentImpairmentLiabilityLimit\": \"986675.00\",\n          \"publicLiabilityExcess\": \"49333.75\",\n          \"workerExcess\": \"49333.75\"\n        },\n        \"professionalIndeminity\": {\n          \"liabilityLimit\": \"49333.75\",\n          \"indemnityExcess\": \"24666.88\"\n        },\n        \"additionalProducts\": false\n      },\n      \"additionalInfo\": {\n        \"wbsNumber\": \"5772659\",\n        \"purchaseOrder\": \"PO5488611\",\n        \"contractors\": [\n          {\n            \"legalName\": \"Parisian, Koelpin and Kirlin\",\n            \"abn\": \"16 002 516 485\"\n          },\n          {\n            \"legalName\": \"Lakin-McCullough\",\n            \"abn\": \"29 076 831 215\"\n          },\n          {\n            \"legalName\": \"Kassulke-Bashirian\",\n            \"abn\": \"15 549 532 626\"\n          }\n        ],\n        \"projectLocation\": {\n          \"streetAddress\": {\n            \"addressLine1\": \"4 Sunbrook Plaza\",\n            \"addressLine2\": \"\",\n            \"city\": \"Vienna\",\n            \"state\": \"Virginia\",\n            \"postCode\": \"2218\"\n          },\n          \"geoLocation\": {\n            \"latitude\": \"38.8318\",\n            \"longitude\": \"-77.2888\"\n          }\n        },\n        \"contactDetails\": {\n          \"accountsPayableEmail\": \"aseakin1@cnbc.com\",\n          \"projectContact\": {\n            \"firstName\": \"Andrea\",\n            \"lastName\": \"Seakin\",\n            \"email\": \"aseakin1@wufoo.com\",\n            \"phone\": \"5717609697\"\n          }\n        }\n      },\n      \"supportingDocuments\": [\n        {\n          \"link\": \"http://dummyimage.com/244x224.png/cc0000/ffffff\",\n          \"title\": \"SupportingDocument_46yo\",\n          \"type\": \"DOC\",\n          \"size\": \"100kb\",\n          \"uploadDate\": \"13/01/2018T00:00:00Z\"\n        },\n        {\n          \"link\": \"http://dummyimage.com/211x207.png/5fa2dd/ffffff\",\n          \"title\": \"SupportingDocument_13gh\",\n          \"type\": \"XLS\",\n          \"size\": \"955kb\",\n          \"uploadDate\": \"13/01/2018T00:00:00Z\"\n        }\n      ]\n    }\n  }\n}",
      "type": "text",
      "enabled": true
    },
    {
      "key": "TestDataParam_NewQuoteId",
      "value": "J9519183",
      "type": "text",
      "enabled": true
    }
  ],
  "name": "My Workspace Globals",
  "_postman_variable_scope": "globals",
  "_postman_exported_at": "2018-06-25T06:26:47.165Z",
  "_postman_exported_using": "Postman/6.1.3"
}